{
  "girBaseDir": "/usr/share/gir-1.0",
  "outputDir": "bindings",
  "logLevel": "INFO",
  "skipFormat": false,
  "bindingLicense": "LGPL",
  "libraries": [
    {
      "name": "cairo",
      "module": "core:cairo",
      "girPrefix": "cairo-"
    },
    {
      "name": "gdkpixbuf",
      "module": "core:gdkpixbuf",
      "girPrefix": "GdkPixbuf-"
    },
    {
      "name": "gio",
      "module": "core:gio",
      "girPrefix": "Gio-"
    },
    {
      "name": "glib",
      "module": "core:glib",
      "girPrefix": "GLib-"
    },
    {
      "name": "gmodule",
      "module": "core:gmodule",
      "girPrefix": "GModule-"
    },
    {
      "name": "gobject",
      "module": "core:gobject",
      "girPrefix": "GObject-"
    },
    {
      "name": "graphene",
      "module": "core:graphene",
      "girPrefix": "Graphene-"
    },
    {
      "name": "harfbuzz",
      "module": "core:harfbuzz",
      "girPrefix": "HarfBuzz-"
    },
    {
      "name": "pango",
      "module": "core:pango",
      "girPrefix": "Pango-"
    },
    {
      "name": "pangocairo",
      "module": "core:pangocairo",
      "girPrefix": "PangoCairo-"
    },
    {
      "name": "gdk",
      "module": "gtk:gdk4",
      "girPrefix": "Gdk-4"
    },
    {
      "name": "gsk",
      "module": "gtk:gsk4",
      "girPrefix": "Gsk-"
    },
    {
      "name": "gtk",
      "module": "gtk:gtk4",
      "girPrefix": "Gtk-4"
    },
    {
      "name": "adw",
      "module": "adwaita",
      "girPrefix": "Adw-1"
    }
  ],
  "ignoredLibraries": [
    {
      "name": "gtksource",
      "module": "extra:gtksource",
      "girPrefix": "GtkSource-5"
    },
    {
      "name": "he",
      "module": "extra:libhelium",
      "girPrefix": "He-"
    }
  ]
}
